{
	"user_auth": true,
	"total_items": 1000,
	"total_pages": 3,
	"items_per_page": 25,
	"current_page": 1, 

	"title" : "Купить однокомнатную, двухкомнатную, многокомнатную квартиру в Городе на Неве",
	"descr" : "От 0 до 10 Р, вторичка, новостройка, Адмиралтейский, Калининский, жилай площадь от 92, в доме до 9 этажей, за 2 недели.",

	"lists" : [
		{ "id": 1, "name": "Список 1", "count": 23 }, 
		{ "id": 2, "name": "Список 2", "count": 2 }, 
		{ "id": 3, "name": "Список 3", "count": 9 }, 
		{ "id": 4, "name": "Список 4", "count": 23 }, 
		{ "id": 5, "name": "Список 5", "count": 2 }, 
		{ "id": 6, "name": "Список 6", "count": 3 }, 
		{ "id": 7, "name": "Список 7", "count": 6 }, 
		{ "id": 8, "name": "Список 8", "count": 1 }, 
		{ "id": 9, "name": "Список 9", "count": 2 } 
	],

	"items": [
		{
			"js": {"id": 1, "link": "http://bn.ru/1" },
			"mods": {"selected": true, "many_images": true},
			"image": "../../img/account-my-ads-sample.jpg",
			"address_text": "Шпалерная 51 и оочень длинный текст гораздо длиннее 30 символов",
			"address_help": "Бизнесцентр 1 и много текста тратата текст гораздо длиннее 30 символов",
			"object_text": "офис",
			"object_help": "",
			"s_text": "56,7",
			"s_help": "",
			"floor_text": "5/7",
			"floor_help": "",
			"san_text": "P",
			"san_help": "",
			"home_text": "CФЛ",
			"home_help": "",
			"home_voprosique": "?",
			"home_voprosique_text": "Дома СФЛ тратата",
			"price_text": "19 000",
			"price_help": "",
			"seller_text": "Айдем и много текста тратата текст гораздо длиннее 30 символов",
			"seller_help": "1 июня",
			"phones": ["8 (123) 987-78-12", "8 (123) 987-78-12"],
			"comment": "вход со двора, окна во двор, ремонт произведен, телефон есть, гор.вода теплоцентр, заст.лоджия",
			"is_favorite": true,
			"in_lists": [1, 4, 8],
			"user_comment": ""
		},{
			"js": {"id": 2, "link": "http://bn.ru/1"},
			"mods": {"selected": true},
			"address_text": "Грибоедова кан. наб. 144",
			"address_help": "м. Сенная,, 12 мин. пешком",
			"object_text": "студия",
			"object_help": "",
			"s_text": "56,7",
			"s_help": "",
			"floor_text": "5/7",
			"floor_help": "",
			"san_text": "P",
			"san_help": "",
			"home_text": "CФЛ",
			"home_help": "",
			"price_text": "13 850",
			"price_help": "ипот.",
			"seller_text": "Айдем",
			"seller_help": "1 июня",
			"phones": ["8 (123) 987-78-12", "8 (123) 987-78-12"],
			"comment": "вход со двора, окна во двор, ремонт произведен, телефон есть, гор.вода теплоцентр, заст.лоджия",
			"is_favorite": false,
			"in_lists": [8],
			"user_comment": "Какой-то текст"
		},{
			"js": {"id": 3, "link": "http://bn.ru/1"},
			"mods": {"selected": true},
			"address_text": "Шпалерная 53",
			"address_help": "Бизнесцентр 3",
			"object_text": "офис",
			"object_help": "",
			"s_text": "56,7",
			"s_help": "",
			"floor_text": "5/7",
			"floor_help": "",
			"san_text": "P",
			"san_help": "",
			"home_text": "CФЛ",
			"home_help": "",
			"price_text": "19 000",
			"price_help": "",
			"seller_text": "Айдем",
			"seller_help": "1 июня",
			"phones": ["8 (123) 987-78-12", "8 (123) 987-78-12"],
			"comment": "вход со двора, окна во двор, ремонт произведен, телефон есть, гор.вода теплоцентр, заст.лоджия",
			"is_favorite": true,
			"in_lists": [],
			"user_comment": ""
		},{
			"js": {"id": 4, "link": "http://bn.ru/1"},
			"mods": { },
			"address_text": "Шпалерная 54",
			"address_help": "Бизнесцентр 4",
			"object_text": "офис",
			"object_help": "",
			"s_text": "56,7",
			"s_help": "",
			"floor_text": "5/7",
			"floor_help": "",
			"san_text": "P",
			"san_help": "",
			"home_text": "CФЛ",
			"home_help": "",
			"price_text": "19 000",
			"price_help": "",
			"seller_text": "Айдем",
			"seller_help": "1 июня",
			"phones": ["8 (123) 987-78-12", "8 (123) 987-78-12"],
			"comment": "вход со двора, окна во двор, ремонт произведен, телефон есть, гор.вода теплоцентр, заст.лоджия",
			"is_favorite": false,
			"in_lists": [],
			"user_comment": ""
		},{
			"js": {"id": 4, "link": "http://bn.ru/1"},
			"mods": { },
			"address_text": "Шпалерная 54",
			"address_help": "Бизнесцентр 4",
			"object_text": "офис",
			"object_help": "",
			"s_text": "56,7",
			"s_help": "",
			"floor_text": "5/7",
			"floor_help": "",
			"san_text": "P",
			"san_help": "",
			"home_text": "CФЛ",
			"home_help": "",
			"price_text": "19 000",
			"price_help": "",
			"seller_text": "Айдем",
			"seller_help": "1 июня",
			"phones": ["8 (123) 987-78-12", "8 (123) 987-78-12"],
			"comment": "вход со двора, окна во двор, ремонт произведен, телефон есть, гор.вода теплоцентр, заст.лоджия",
			"is_favorite": false,
			"in_lists": [],
			"user_comment": ""
		},{
			"js": {"id": 4, "link": "http://bn.ru/1"},
			"mods": { },
			"address_text": "Шпалерная 54",
			"address_help": "Бизнесцентр 4",
			"object_text": "офис",
			"object_help": "",
			"s_text": "56,7",
			"s_help": "",
			"floor_text": "5/7",
			"floor_help": "",
			"san_text": "P",
			"san_help": "",
			"home_text": "CФЛ",
			"home_help": "",
			"price_text": "19 000",
			"price_help": "",
			"seller_text": "Айдем",
			"seller_help": "1 июня",
			"phones": ["8 (123) 987-78-12", "8 (123) 987-78-12"],
			"comment": "вход со двора, окна во двор, ремонт произведен, телефон есть, гор.вода теплоцентр, заст.лоджия",
			"is_favorite": false,
			"in_lists": [],
			"user_comment": ""
		},{
			"embed": true,
			"js": { "id": 2 },
			"mods": { "small": true },
			"link": "http://bn.ru/1",
			"text": "Шкапина ул, 17. Общая площадь 31,5 м². 4 970 тысяч рублей. ГЛАВСТРОЙ-СПб"
		},{
			"js": {"id": 4, "link": "http://bn.ru/1"},
			"mods": { },
			"address_text": "Шпалерная 54",
			"address_help": "Бизнесцентр 4",
			"object_text": "офис",
			"object_help": "",
			"s_text": "56,7",
			"s_help": "",
			"floor_text": "5/7",
			"floor_help": "",
			"san_text": "P",
			"san_help": "",
			"home_text": "CФЛ",
			"home_help": "",
			"price_text": "19 000",
			"price_help": "",
			"seller_text": "Айдем",
			"seller_help": "1 июня",
			"phones": ["8 (123) 987-78-12", "8 (123) 987-78-12"],
			"comment": "вход со двора, окна во двор, ремонт произведен, телефон есть, гор.вода теплоцентр, заст.лоджия",
			"is_favorite": false,
			"in_lists": [],
			"user_comment": ""
		},{
			"js": {"id": 4, "link": "http://bn.ru/1"},
			"mods": { },
			"address_text": "Шпалерная 54",
			"address_help": "Бизнесцентр 4",
			"object_text": "офис",
			"object_help": "",
			"s_text": "56,7",
			"s_help": "",
			"floor_text": "5/7",
			"floor_help": "",
			"san_text": "P",
			"san_help": "",
			"home_text": "CФЛ",
			"home_help": "",
			"price_text": "19 000",
			"price_help": "",
			"seller_text": "Айдем",
			"seller_help": "1 июня",
			"phones": ["8 (123) 987-78-12", "8 (123) 987-78-12"],
			"comment": "вход со двора, окна во двор, ремонт произведен, телефон есть, гор.вода теплоцентр, заст.лоджия",
			"is_favorite": false,
			"in_lists": [],
			"user_comment": ""
		},{
			"js": {"id": 4, "link": "http://bn.ru/1"},
			"mods": { },
			"address_text": "Шпалерная 54",
			"address_help": "Бизнесцентр 4",
			"object_text": "офис",
			"object_help": "",
			"s_text": "56,7",
			"s_help": "",
			"floor_text": "5/7",
			"floor_help": "",
			"san_text": "P",
			"san_help": "",
			"home_text": "CФЛ",
			"home_help": "",
			"price_text": "19 000",
			"price_help": "",
			"seller_text": "Айдем",
			"seller_help": "1 июня",
			"phones": ["8 (123) 987-78-12", "8 (123) 987-78-12"],
			"comment": "вход со двора, окна во двор, ремонт произведен, телефон есть, гор.вода теплоцентр, заст.лоджия",
			"is_favorite": false,
			"in_lists": [],
			"user_comment": ""
		},{
			"js": {"id": 4, "link": "http://bn.ru/1"},
			"mods": { },
			"address_text": "Шпалерная 54",
			"address_help": "Бизнесцентр 4",
			"object_text": "офис",
			"object_help": "",
			"s_text": "56,7",
			"s_help": "",
			"floor_text": "5/7",
			"floor_help": "",
			"san_text": "P",
			"san_help": "",
			"home_text": "CФЛ",
			"home_help": "",
			"price_text": "19 000",
			"price_help": "",
			"seller_text": "Айдем",
			"seller_help": "1 июня",
			"phones": ["8 (123) 987-78-12", "8 (123) 987-78-12"],
			"comment": "вход со двора, окна во двор, ремонт произведен, телефон есть, гор.вода теплоцентр, заст.лоджия",
			"is_favorite": false,
			"in_lists": [],
			"user_comment": ""
		},{
			"embed": true,
			"js": { "id": 1 },
			"mods": { "big": true },
			"image": "/img/search/bn-lg.png"
		},{
			"js": {"id": 4, "link": "http://bn.ru/1"},
			"mods": { },
			"address_text": "Шпалерная 54",
			"address_help": "Бизнесцентр 4",
			"object_text": "офис",
			"object_help": "",
			"s_text": "56,7",
			"s_help": "",
			"floor_text": "5/7",
			"floor_help": "",
			"san_text": "P",
			"san_help": "",
			"home_text": "CФЛ",
			"home_help": "",
			"price_text": "19 000",
			"price_help": "",
			"seller_text": "Айдем",
			"seller_help": "1 июня",
			"phones": ["8 (123) 987-78-12", "8 (123) 987-78-12"],
			"comment": "вход со двора, окна во двор, ремонт произведен, телефон есть, гор.вода теплоцентр, заст.лоджия",
			"is_favorite": false,
			"in_lists": [],
			"user_comment": ""
		},{
			"js": {"id": 4, "link": "http://bn.ru/1"},
			"mods": {"selected": true},
			"address_text": "Шпалерная 54",
			"address_help": "Бизнесцентр 4",
			"object_text": "офис",
			"object_help": "",
			"s_text": "56,7",
			"s_help": "",
			"floor_text": "5/7",
			"floor_help": "",
			"san_text": "P",
			"san_help": "",
			"home_text": "CФЛ",
			"home_help": "",
			"price_text": "19 000",
			"price_help": "",
			"seller_text": "Айдем",
			"seller_help": "1 июня",
			"phones": ["8 (123) 987-78-12", "8 (123) 987-78-12"],
			"comment": "вход со двора, окна во двор, ремонт произведен, телефон есть, гор.вода теплоцентр, заст.лоджия",
			"is_favorite": false,
			"in_lists": [],
			"user_comment": ""
		},{
			"js": {"id": 4, "link": "http://bn.ru/1"},
			"mods": { },
			"address_text": "Шпалерная 54",
			"address_help": "Бизнесцентр 4",
			"object_text": "офис",
			"object_help": "",
			"s_text": "56,7",
			"s_help": "",
			"floor_text": "5/7",
			"floor_help": "",
			"san_text": "P",
			"san_help": "",
			"home_text": "CФЛ",
			"home_help": "",
			"price_text": "19 000",
			"price_help": "",
			"seller_text": "Айдем",
			"seller_help": "1 июня",
			"phones": ["8 (123) 987-78-12", "8 (123) 987-78-12"],
			"comment": "вход со двора, окна во двор, ремонт произведен, телефон есть, гор.вода теплоцентр, заст.лоджия",
			"is_favorite": false,
			"in_lists": [],
			"user_comment": ""
		},{
			"js": {"id": 4, "link": "http://bn.ru/1"},
			"mods": {"selected": true},
			"address_text": "Шпалерная 54",
			"address_help": "Бизнесцентр 4",
			"object_text": "офис",
			"object_help": "",
			"s_text": "56,7",
			"s_help": "",
			"floor_text": "5/7",
			"floor_help": "",
			"san_text": "P",
			"san_help": "",
			"home_text": "CФЛ",
			"home_help": "",
			"price_text": "19 000",
			"price_help": "",
			"seller_text": "Айдем",
			"seller_help": "1 июня",
			"phones": ["8 (123) 987-78-12", "8 (123) 987-78-12"],
			"comment": "вход со двора, окна во двор, ремонт произведен, телефон есть, гор.вода теплоцентр, заст.лоджия",
			"is_favorite": false,
			"in_lists": [],
			"user_comment": ""
		},{
			"js": {"id": 4, "link": "http://bn.ru/1"},
			"mods": { },
			"address_text": "Шпалерная 54",
			"address_help": "Бизнесцентр 4",
			"object_text": "офис",
			"object_help": "",
			"s_text": "56,7",
			"s_help": "",
			"floor_text": "5/7",
			"floor_help": "",
			"san_text": "P",
			"san_help": "",
			"home_text": "CФЛ",
			"home_help": "",
			"price_text": "19 000",
			"price_help": "",
			"seller_text": "Айдем",
			"seller_help": "1 июня",
			"phones": ["8 (123) 987-78-12", "8 (123) 987-78-12"],
			"comment": "вход со двора, окна во двор, ремонт произведен, телефон есть, гор.вода теплоцентр, заст.лоджия",
			"is_favorite": false,
			"in_lists": [],
			"user_comment": ""
		},{
			"js": {"id": 4, "link": "http://bn.ru/1"},
			"mods": { },
			"address_text": "Шпалерная 54",
			"address_help": "Бизнесцентр 4",
			"object_text": "офис",
			"object_help": "",
			"s_text": "56,7",
			"s_help": "",
			"floor_text": "5/7",
			"floor_help": "",
			"san_text": "P",
			"san_help": "",
			"home_text": "CФЛ",
			"home_help": "",
			"price_text": "19 000",
			"price_help": "",
			"seller_text": "Айдем",
			"seller_help": "1 июня",
			"phones": ["8 (123) 987-78-12", "8 (123) 987-78-12"],
			"comment": "вход со двора, окна во двор, ремонт произведен, телефон есть, гор.вода теплоцентр, заст.лоджия",
			"is_favorite": false,
			"in_lists": [],
			"user_comment": ""
		},{
			"js": {"id": 4, "link": "http://bn.ru/1"},
			"mods": { },
			"address_text": "Шпалерная 54",
			"address_help": "Бизнесцентр 4",
			"object_text": "офис",
			"object_help": "",
			"s_text": "56,7",
			"s_help": "",
			"floor_text": "5/7",
			"floor_help": "",
			"san_text": "P",
			"san_help": "",
			"home_text": "CФЛ",
			"home_help": "",
			"price_text": "19 000",
			"price_help": "",
			"seller_text": "Айдем",
			"seller_help": "1 июня",
			"phones": ["8 (123) 987-78-12", "8 (123) 987-78-12"],
			"comment": "вход со двора, окна во двор, ремонт произведен, телефон есть, гор.вода теплоцентр, заст.лоджия",
			"is_favorite": false,
			"in_lists": [],
			"user_comment": ""
		},{
			"js": {"id": 4, "link": "http://bn.ru/1"},
			"mods": { },
			"address_text": "Шпалерная 54",
			"address_help": "Бизнесцентр 4",
			"object_text": "офис",
			"object_help": "",
			"s_text": "56,7",
			"s_help": "",
			"floor_text": "5/7",
			"floor_help": "",
			"san_text": "P",
			"san_help": "",
			"home_text": "CФЛ",
			"home_help": "",
			"price_text": "19 000",
			"price_help": "",
			"seller_text": "Айдем",
			"seller_help": "1 июня",
			"phones": ["8 (123) 987-78-12", "8 (123) 987-78-12"],
			"comment": "вход со двора, окна во двор, ремонт произведен, телефон есть, гор.вода теплоцентр, заст.лоджия",
			"is_favorite": false,
			"in_lists": [],
			"user_comment": ""
		},{
			"js": {"id": 4, "link": "http://bn.ru/1"},
			"mods": { },
			"address_text": "Шпалерная 54",
			"address_help": "Бизнесцентр 4",
			"object_text": "офис",
			"object_help": "",
			"s_text": "56,7",
			"s_help": "",
			"floor_text": "5/7",
			"floor_help": "",
			"san_text": "P",
			"san_help": "",
			"home_text": "CФЛ",
			"home_help": "",
			"price_text": "19 000",
			"price_help": "",
			"seller_text": "Айдем",
			"seller_help": "1 июня",
			"phones": ["8 (123) 987-78-12", "8 (123) 987-78-12"],
			"comment": "вход со двора, окна во двор, ремонт произведен, телефон есть, гор.вода теплоцентр, заст.лоджия",
			"is_favorite": false,
			"in_lists": [],
			"user_comment": ""
		},{
			"js": {"id": 4, "link": "http://bn.ru/1"},
			"mods": { },
			"address_text": "Шпалерная 54",
			"address_help": "Бизнесцентр 4",
			"object_text": "офис",
			"object_help": "",
			"s_text": "56,7",
			"s_help": "",
			"floor_text": "5/7",
			"floor_help": "",
			"san_text": "P",
			"san_help": "",
			"home_text": "CФЛ",
			"home_help": "",
			"price_text": "19 000",
			"price_help": "",
			"seller_text": "Айдем",
			"seller_help": "1 июня",
			"phones": ["8 (123) 987-78-12", "8 (123) 987-78-12"],
			"comment": "вход со двора, окна во двор, ремонт произведен, телефон есть, гор.вода теплоцентр, заст.лоджия",
			"is_favorite": false,
			"in_lists": [],
			"user_comment": ""
		},{
			"js": {"id": 4, "link": "http://bn.ru/1"},
			"mods": { },
			"address_text": "Шпалерная 54",
			"address_help": "Бизнесцентр 4",
			"object_text": "офис",
			"object_help": "",
			"s_text": "56,7",
			"s_help": "",
			"floor_text": "5/7",
			"floor_help": "",
			"san_text": "P",
			"san_help": "",
			"home_text": "CФЛ",
			"home_help": "",
			"price_text": "19 000",
			"price_help": "",
			"seller_text": "Айдем",
			"seller_help": "1 июня",
			"phones": ["8 (123) 987-78-12", "8 (123) 987-78-12"],
			"comment": "вход со двора, окна во двор, ремонт произведен, телефон есть, гор.вода теплоцентр, заст.лоджия",
			"is_favorite": false,
			"in_lists": [],
			"user_comment": ""
		},{
			"js": {"id": 4, "link": "http://bn.ru/1"},
			"mods": { },
			"address_text": "Шпалерная 54",
			"address_help": "Бизнесцентр 4",
			"object_text": "офис",
			"object_help": "",
			"s_text": "56,7",
			"s_help": "",
			"floor_text": "5/7",
			"floor_help": "",
			"san_text": "P",
			"san_help": "",
			"home_text": "CФЛ",
			"home_help": "",
			"price_text": "19 000",
			"price_help": "",
			"seller_text": "Айдем",
			"seller_help": "1 июня",
			"phones": ["8 (123) 987-78-12", "8 (123) 987-78-12"],
			"comment": "вход со двора, окна во двор, ремонт произведен, телефон есть, гор.вода теплоцентр, заст.лоджия",
			"is_favorite": false,
			"in_lists": [],
			"user_comment": ""
		}
	]

}