{
    "total_items": 100,
    "total_pages": 20,
    "current_page": 2, 

    "items": [
        {
            "js": {
                "id": 1
            },
            "title": "Василий аренда комнтата в центре",
            "info_text": "54 объявлений",
            "status_text": "изменен 19 июля 2015",
            "link": "#"
        },
        {
            "js": {
                "id": 2
            },
            "title": "Наталья однокомнатная до 3 млн только новый дом",
            "info_text": "13 объявлений",
            "status_text": "создан 23 июля 2015",
            "link": "#"
        },
        {
            "js": {
                "id": 3
            },
            "title": "Однушка только вторичка приморский",
            "info_text": "54 объявлений",
            "status_text": "изменен 19 июля 2015",
            "link": "#"
        },
        {
            "js": {
                "id": 4
            },
            "title": "Аренда однушки в Московском только новый дом без мебели, с животными и детьми",
            "info_text": "1 объявление",
            "status_text": "создан 23 июля 2015",
            "link": "#"
        },
        {
            "js": {
                "id": 5
            },
            "title": "Мария двушка до 3 млн",
            "info_text": "13 объявлений",
            "status_text": "создан 23 июля 2015",
            "link": "#"
        },
        {
            "js": {
                "id": 6
            },
            "title": "Александр однушка или двушка в Приморском",
            "info_text": "54 объявлений",
            "status_text": "изменен 19 июля 2015",
            "link": "#"
        },
        {
            "js": {
                "id": 7
            },
            "title": "Николай Петрович, трехкомнатная до 7 млн всё кроме центра",
            "info_text": "100 объявлений",
            "status_text": "создан 23 июля 2015",
            "link": "#"
        },
        {
            "js": {
                "id": 8
            },
            "title": "Маша, сестра жены брата кузена - аренда комнтата в центре",
            "info_text": "54 объявлений",
            "status_text": "изменен 19 июля 2015",
            "link": "#"
        },
        {
            "js": {
                "id": 9
            },
            "title": "Василий аренда комнтата в центре",
            "info_text": "54 объявлений",
            "status_text": "изменен 19 июля 2015",
            "link": "#"
        },
        {
            "js": {
                "id": 10
            },
            "title": "Наталья однокомнатная до 3 млн только новый дом",
            "info_text": "13 объявлений",
            "status_text": "создан 23 июля 2015",
            "link": "#"
        },
        {
            "js": {
                "id": 11
            },
            "title": "Василий аренда комнтата в центре",
            "info_text": "54 объявлений",
            "status_text": "изменен 19 июля 2015",
            "link": "#"
        },
        {
            "js": {
                "id": 12
            },
            "title": "Аренда однушки в Московском только новый дом без мебели, с животными и детьми",
            "info_text": "1 объявление",
            "status_text": "изменен 19 июля 2015",
            "link": "#"
        },
        {
            "js": {
                "id": 13
            },
            "title": "Мария двушка до 3 млн",
            "info_text": "13 объявлений",
            "status_text": "создан 23 июля 2015",
            "link": "#"
        },
        {
            "js": {
                "id": 14
            },
            "title": "Александр однушка или двушка в Приморском",
            "info_text": "54 объявлений",
            "status_text": "изменен 19 июля 2015",
            "link": "#"
        },
        {
            "js": {
                "id": 15
            },
            "title": "Николай Петрович, трехкомнатная до 7 млн всё кроме центра",
            "info_text": "100 объявлений",
            "status_text": "создан 23 июля 2015",
            "link": "#"
        },
        {
            "js": {
                "id": 16
            },
            "title": "Маша, сестра жены брата кузена - аренда комнтата в центре",
            "info_text": "54 объявлений",
            "status_text": "изменен 19 июля 2015",
            "link": "#"
        },
        {
            "js": {
                "id": 17
            },
            "title": "Василий аренда комнтата в центре",
            "info_text": "54 объявлений",
            "status_text": "изменен 19 июля 2015",
            "link": "#"
        },
        {
            "js": {
                "id": 18
            },
            "title": "Наталья однокомнатная до 3 млн только новый дом",
            "info_text": "13 объявлений",
            "status_text": "создан 23 июля 2015",
            "link": "#"
        },
        {
            "js": {
                "id": 19
            },
            "title": "Однушка только вторичка приморский",
            "info_text": "54 объявлений",
            "status_text": "изменен 19 июля 2015",
            "link": "#"
        },
        {
            "js": {
                "id": 20
            },
            "title": "Аренда однушки в Московском только новый дом без мебели, с животными и детьми",
            "info_text": "1 объявление",
            "status_text": "создан 23 июля 2015",
            "link": "#"
        }
    ]
}