{
    "user_auth": "true",
    "total_pages": 2,
    "current_page": 1,
    "total_items": 100,
    "current_items": 10,

    "items": [
        {

            "js": { "id": 1 },
            "title": "Купить однокомнатную, двухкомнатную, многокомнатную квартиру в Санкт-Петербурге",
            "description": "От 2 500 000 до 23 000 000 Р, вторичка, новостройка, Адмиралтейский, Калининский, жилая площадь от 32, не первый, не последний этаж, в доме до 9 этажей, за 2 недели.",
            "date_text": "29 июня, 17:02"
        },
        {

            "js": { "id": 1 },
            "title": "Купить однокомнатную, двухкомнатную, многокомнатную квартиру в Санкт-Петербурге",
            "description": "От 2 500 000 до 23 000 000 Р, вторичка, новостройка, Адмиралтейский, Калининский, жилая площадь от 32, не первый, не последний этаж, в доме до 9 этажей, за 2 недели.",
            "date_text": "29 июня, 17:02"
        },
        {

            "js": { "id": 1 },
            "title": "Купить однокомнатную, двухкомнатную, многокомнатную квартиру в Санкт-Петербурге",
            "description": "От 2 500 000 до 23 000 000 Р, вторичка, новостройка, Адмиралтейский, Калининский, жилая площадь от 32, не первый, не последний этаж, в доме до 9 этажей, за 2 недели.",
            "date_text": "29 июня, 17:02"
        },
        {

            "js": { "id": 1 },
            "title": "Купить однокомнатную, двухкомнатную, многокомнатную квартиру в Санкт-Петербурге",
            "description": "От 2 500 000 до 23 000 000 Р, вторичка, новостройка, Адмиралтейский, Калининский, жилая площадь от 32, не первый, не последний этаж, в доме до 9 этажей, за 2 недели.",
            "date_text": "29 июня, 17:02"
        },
        {

            "js": { "id": 1 },
            "title": "Купить однокомнатную, двухкомнатную, многокомнатную квартиру в Санкт-Петербурге",
            "description": "От 2 500 000 до 23 000 000 Р, вторичка, новостройка, Адмиралтейский, Калининский, жилая площадь от 32, не первый, не последний этаж, в доме до 9 этажей, за 2 недели.",
            "date_text": "29 июня, 17:02"
        },
        {

            "js": { "id": 1 },
            "title": "Купить однокомнатную, двухкомнатную, многокомнатную квартиру в Санкт-Петербурге",
            "description": "От 2 500 000 до 23 000 000 Р, вторичка, новостройка, Адмиралтейский, Калининский, жилая площадь от 32, не первый, не последний этаж, в доме до 9 этажей, за 2 недели.",
            "date_text": "29 июня, 17:02"
        },
        {

            "js": { "id": 1 },
            "title": "Купить однокомнатную, двухкомнатную, многокомнатную квартиру в Санкт-Петербурге",
            "description": "От 2 500 000 до 23 000 000 Р, вторичка, новостройка, Адмиралтейский, Калининский, жилая площадь от 32, не первый, не последний этаж, в доме до 9 этажей, за 2 недели.",
            "date_text": "29 июня, 17:02"
        },
        {

            "js": { "id": 1 },
            "title": "Купить однокомнатную, двухкомнатную, многокомнатную квартиру в Санкт-Петербурге",
            "description": "От 2 500 000 до 23 000 000 Р, вторичка, новостройка, Адмиралтейский, Калининский, жилая площадь от 32, не первый, не последний этаж, в доме до 9 этажей, за 2 недели.",
            "date_text": "29 июня, 17:02"
        },
        {

            "js": { "id": 1 },
            "title": "Купить однокомнатную, двухкомнатную, многокомнатную квартиру в Санкт-Петербурге",
            "description": "От 2 500 000 до 23 000 000 Р, вторичка, новостройка, Адмиралтейский, Калининский, жилая площадь от 32, не первый, не последний этаж, в доме до 9 этажей, за 2 недели.",
            "date_text": "29 июня, 17:02"
        },
        {

            "js": { "id": 1 },
            "title": "Купить однокомнатную, двухкомнатную, многокомнатную квартиру в Санкт-Петербурге",
            "description": "От 2 500 000 до 23 000 000 Р, вторичка, новостройка, Адмиралтейский, Калининский, жилая площадь от 32, не первый, не последний этаж, в доме до 9 этажей, за 2 недели.",
            "date_text": "29 июня, 17:02"
        }
    ]
}